﻿0-0000004^00000002^Увеличение оценки на 4 процента^11/7/2018^11/7/2019
0-0000005^00000002^Увеличение оценки на 4 процента^11/7/2018^11/7/2019
0-0000004^00000016^Скидка Алем^11/7/2018^11/7/2019
0-0000005^00000016^Скидка Алем^11/7/2018^11/7/2019
0-0000004^00000017^Увеличение оценки на 3 процента^11/7/2018^11/7/2019
0-0000005^00000017^Увеличение оценки на 3 процента^11/7/2018^11/7/2019
0-0000061^00000022^Бесплатные 10 дня (Кокшетау)^4/1/2019^5/31/2019
0-0000022^00000022^Бесплатные 10 дня (Кокшетау)^4/1/2019^5/31/2019
0-0000026^00000022^Бесплатные 10 дня (Кокшетау)^4/1/2019^5/31/2019
0-0000025^00000022^Бесплатные 10 дня (Кокшетау)^4/1/2019^5/31/2019
0-0000023^00000022^Бесплатные 10 дня (Кокшетау)^4/1/2019^5/31/2019
